%!PS-Adobe-3.0 EPSF-3.0
%%Creator: cairo 1.14.0 (http://cairographics.org)
%%CreationDate: Fri Jul 17 17:50:03 2015
%%Pages: 1
%%DocumentData: Clean7Bit
%%LanguageLevel: 2
%%BoundingBox: 0 -1 200 200
%%EndComments
%%BeginProlog
save
50 dict begin
/q { gsave } bind def
/Q { grestore } bind def
/cm { 6 array astore concat } bind def
/w { setlinewidth } bind def
/J { setlinecap } bind def
/j { setlinejoin } bind def
/M { setmiterlimit } bind def
/d { setdash } bind def
/m { moveto } bind def
/l { lineto } bind def
/c { curveto } bind def
/h { closepath } bind def
/re { exch dup neg 3 1 roll 5 3 roll moveto 0 rlineto
      0 exch rlineto 0 rlineto closepath } bind def
/S { stroke } bind def
/f { fill } bind def
/f* { eofill } bind def
/n { newpath } bind def
/W { clip } bind def
/W* { eoclip } bind def
/BT { } bind def
/ET { } bind def
/pdfmark where { pop globaldict /?pdfmark /exec load put }
    { globaldict begin /?pdfmark /pop load def /pdfmark
    /cleartomark load def end } ifelse
/BDC { mark 3 1 roll /BDC pdfmark } bind def
/EMC { mark /EMC pdfmark } bind def
/cairo_store_point { /cairo_point_y exch def /cairo_point_x exch def } def
/Tj { show currentpoint cairo_store_point } bind def
/TJ {
  {
    dup
    type /stringtype eq
    { show } { -0.001 mul 0 cairo_font_matrix dtransform rmoveto } ifelse
  } forall
  currentpoint cairo_store_point
} bind def
/cairo_selectfont { cairo_font_matrix aload pop pop pop 0 0 6 array astore
    cairo_font exch selectfont cairo_point_x cairo_point_y moveto } bind def
/Tf { pop /cairo_font exch def /cairo_font_matrix where
      { pop cairo_selectfont } if } bind def
/Td { matrix translate cairo_font_matrix matrix concatmatrix dup
      /cairo_font_matrix exch def dup 4 get exch 5 get cairo_store_point
      /cairo_font where { pop cairo_selectfont } if } bind def
/Tm { 2 copy 8 2 roll 6 array astore /cairo_font_matrix exch def
      cairo_store_point /cairo_font where { pop cairo_selectfont } if } bind def
/g { setgray } bind def
/rg { setrgbcolor } bind def
/d1 { setcachedevice } bind def
%%EndProlog
%%BeginSetup
%%EndSetup
%%Page: 1 1
%%BeginPageSetup
%%PageBoundingBox: 0 -1 200 200
%%EndPageSetup
q 0 -1 200 201 rectclip q
0 g
0 200 8 -8 re f
8 200 8 -8 re f
16 200 8 -8 re f
24 200 8 -8 re f
32 200 8 -8 re f
40 200 8 -8 re f
48 200 8 -8 re f
88 200 8 -8 re f
104 200 8 -8 re f
144 200 8 -8 re f
152 200 8 -8 re f
160 200 8 -8 re f
168 200 8 -8 re f
176 200 8 -8 re f
184 200 8 -8 re f
192 200 8 -8 re f
0 192 8 -8 re f
48 192 8 -8 re f
72 192 8 -8 re f
80 192 8 -8 re f
104 192 8 -8 re f
112 192 8 -8 re f
120 192 8 -8 re f
128 192 8 -8 re f
144 192 8 -8 re f
192 192 8 -8 re f
0 184 8 -8 re f
16 184 8 -8 re f
24 184 8 -8 re f
32 184 8 -8 re f
48 184 8 -8 re f
64 184 8 -8 re f
80 184 8 -8 re f
96 184 8 -8 re f
128 184 8 -8 re f
144 184 8 -8 re f
160 184 8 -8 re f
168 184 8 -8 re f
176 184 8 -8 re f
192 184 8 -8 re f
0 176 8 -8 re f
16 176 8 -8 re f
24 176 8 -8 re f
32 176 8 -8 re f
48 176 8 -8 re f
64 176 8 -8 re f
80 176 8 -8 re f
104 176 8 -8 re f
112 176 8 -8 re f
144 176 8 -8 re f
160 176 8 -8 re f
168 176 8 -8 re f
176 176 8 -8 re f
192 176 8 -8 re f
0 168 8 -8 re f
16 168 8 -8 re f
24 168 8 -8 re f
32 168 8 -8 re f
48 168 8 -8 re f
64 168 8 -8 re f
80 168 8 -8 re f
88 168 8 -8 re f
96 168 8 -8 re f
104 168 8 -8 re f
128 168 8 -8 re f
144 168 8 -8 re f
160 168 8 -8 re f
168 168 8 -8 re f
176 168 8 -8 re f
192 168 8 -8 re f
0 160 8 -8 re f
48 160 8 -8 re f
64 160 8 -8 re f
88 160 8 -8 re f
96 160 8 -8 re f
104 160 8 -8 re f
112 160 8 -8 re f
120 160 8 -8 re f
144 160 8 -8 re f
192 160 8 -8 re f
0 152 8 -8 re f
8 152 8 -8 re f
16 152 8 -8 re f
24 152 8 -8 re f
32 152 8 -8 re f
40 152 8 -8 re f
48 152 8 -8 re f
64 152 8 -8 re f
80 152 8 -8 re f
96 152 8 -8 re f
112 152 8 -8 re f
128 152 8 -8 re f
144 152 8 -8 re f
152 152 8 -8 re f
160 152 8 -8 re f
168 152 8 -8 re f
176 152 8 -8 re f
184 152 8 -8 re f
192 152 8 -8 re f
64 144 8 -8 re f
72 144 8 -8 re f
80 144 8 -8 re f
96 144 8 -8 re f
112 144 8 -8 re f
120 144 8 -8 re f
128 144 8 -8 re f
0 136 8 -8 re f
16 136 8 -8 re f
24 136 8 -8 re f
32 136 8 -8 re f
40 136 8 -8 re f
48 136 8 -8 re f
72 136 8 -8 re f
104 136 8 -8 re f
112 136 8 -8 re f
120 136 8 -8 re f
128 136 8 -8 re f
144 136 8 -8 re f
152 136 8 -8 re f
160 136 8 -8 re f
168 136 8 -8 re f
176 136 8 -8 re f
8 128 8 -8 re f
16 128 8 -8 re f
24 128 8 -8 re f
40 128 8 -8 re f
56 128 8 -8 re f
64 128 8 -8 re f
80 128 8 -8 re f
88 128 8 -8 re f
112 128 8 -8 re f
128 128 8 -8 re f
152 128 8 -8 re f
184 128 8 -8 re f
24 120 8 -8 re f
32 120 8 -8 re f
48 120 8 -8 re f
56 120 8 -8 re f
72 120 8 -8 re f
88 120 8 -8 re f
96 120 8 -8 re f
104 120 8 -8 re f
120 120 8 -8 re f
128 120 8 -8 re f
136 120 8 -8 re f
144 120 8 -8 re f
152 120 8 -8 re f
168 120 8 -8 re f
184 120 8 -8 re f
192 120 8 -8 re f
32 112 8 -8 re f
40 112 8 -8 re f
72 112 8 -8 re f
96 112 8 -8 re f
120 112 8 -8 re f
128 112 8 -8 re f
192 112 8 -8 re f
8 104 8 -8 re f
16 104 8 -8 re f
24 104 8 -8 re f
32 104 8 -8 re f
40 104 8 -8 re f
48 104 8 -8 re f
96 104 8 -8 re f
104 104 8 -8 re f
112 104 8 -8 re f
120 104 8 -8 re f
136 104 8 -8 re f
144 104 8 -8 re f
160 104 8 -8 re f
176 104 8 -8 re f
184 104 8 -8 re f
192 104 8 -8 re f
8 96 8 -8 re f
32 96 8 -8 re f
72 96 8 -8 re f
80 96 8 -8 re f
128 96 8 -8 re f
152 96 8 -8 re f
168 96 8 -8 re f
184 96 8 -8 re f
8 88 8 -8 re f
48 88 8 -8 re f
64 88 8 -8 re f
72 88 8 -8 re f
80 88 8 -8 re f
88 88 8 -8 re f
96 88 8 -8 re f
104 88 8 -8 re f
112 88 8 -8 re f
120 88 8 -8 re f
136 88 8 -8 re f
144 88 8 -8 re f
152 88 8 -8 re f
160 88 8 -8 re f
168 88 8 -8 re f
184 88 8 -8 re f
192 88 8 -8 re f
8 80 8 -8 re f
16 80 8 -8 re f
24 80 8 -8 re f
40 80 8 -8 re f
88 80 8 -8 re f
112 80 8 -8 re f
136 80 8 -8 re f
144 80 8 -8 re f
168 80 8 -8 re f
192 80 8 -8 re f
8 72 8 -8 re f
24 72 8 -8 re f
32 72 8 -8 re f
48 72 8 -8 re f
56 72 8 -8 re f
64 72 8 -8 re f
72 72 8 -8 re f
80 72 8 -8 re f
88 72 8 -8 re f
120 72 8 -8 re f
128 72 8 -8 re f
136 72 8 -8 re f
144 72 8 -8 re f
152 72 8 -8 re f
160 72 8 -8 re f
176 72 8 -8 re f
64 64 8 -8 re f
96 64 8 -8 re f
104 64 8 -8 re f
128 64 8 -8 re f
160 64 8 -8 re f
168 64 8 -8 re f
176 64 8 -8 re f
0 56 8 -8 re f
8 56 8 -8 re f
16 56 8 -8 re f
24 56 8 -8 re f
32 56 8 -8 re f
40 56 8 -8 re f
48 56 8 -8 re f
72 56 8 -8 re f
80 56 8 -8 re f
104 56 8 -8 re f
112 56 8 -8 re f
128 56 8 -8 re f
144 56 8 -8 re f
160 56 8 -8 re f
168 56 8 -8 re f
176 56 8 -8 re f
184 56 8 -8 re f
192 56 8 -8 re f
0 48 8 -8 re f
48 48 8 -8 re f
64 48 8 -8 re f
72 48 8 -8 re f
80 48 8 -8 re f
96 48 8 -8 re f
104 48 8 -8 re f
128 48 8 -8 re f
160 48 8 -8 re f
168 48 8 -8 re f
184 48 8 -8 re f
192 48 8 -8 re f
0 40 8 -8 re f
16 40 8 -8 re f
24 40 8 -8 re f
32 40 8 -8 re f
48 40 8 -8 re f
64 40 8 -8 re f
96 40 8 -8 re f
112 40 8 -8 re f
120 40 8 -8 re f
128 40 8 -8 re f
136 40 8 -8 re f
144 40 8 -8 re f
152 40 8 -8 re f
160 40 8 -8 re f
168 40 8 -8 re f
176 40 8 -8 re f
184 40 8 -8 re f
192 40 8 -8 re f
0 32 8 -8 re f
16 32 8 -8 re f
24 32 8 -8 re f
32 32 8 -8 re f
48 32 8 -8 re f
64 32 8 -8 re f
80 32 8 -8 re f
120 32 8 -8 re f
144 32 8 -8 re f
160 32 8 -8 re f
176 32 8 -8 re f
184 32 8 -8 re f
192 32 8 -8 re f
0 24 8 -8 re f
16 24 8 -8 re f
24 24 8 -8 re f
32 24 8 -8 re f
48 24 8 -8 re f
64 24 8 -8 re f
72 24 8 -8 re f
88 24 8 -8 re f
96 24 8 -8 re f
120 24 8 -8 re f
152 24 8 -8 re f
176 24 8 -8 re f
192 24 8 -8 re f
0 16 8 -8 re f
48 16 8 -8 re f
80 16 8 -8 re f
88 16 8 -8 re f
112 16 8 -8 re f
128 16 8 -8 re f
136 16 8 -8 re f
152 16 8 -8 re f
160 16 8 -8 re f
168 16 8 -8 re f
192 16 8 -8 re f
0 8 8 -8 re f
8 8 8 -8 re f
16 8 8 -8 re f
24 8 8 -8 re f
32 8 8 -8 re f
40 8 8 -8 re f
48 8 8 -8 re f
64 8 8 -8 re f
72 8 8 -8 re f
88 8 8 -8 re f
136 8 8 -8 re f
144 8 8 -8 re f
152 8 8 -8 re f
160 8 8 -8 re f
168 8 8 -8 re f
176 8 8 -8 re f
184 8 8 -8 re f
192 8 8 -8 re f
Q Q
showpage
%%Trailer
end restore
%%EOF
